{
  "type": "service_account",
  "project_id": "feedbackhall",
  "private_key_id": "d0637e23bf866740abe4633ca6d4af815381ffc6",
  "private_key": "-----BEGIN PRIVATE KEY-----\nMIIEvgIBADANBgkqhkiG9w0BAQEFAASCBKgwggSkAgEAAoIBAQCPJNmOYH68LOOM\nv27GZRv2DAZritaH3vKkkgW5niM8gXeUpkLB87Gu5+EWpjc0rAgTPT7SHnq5kniY\nzuNoZTIwEfszYa9EjyqCsQ7Bba4BTz/ppK4e6+BE9nITFsb2g+gftpq+swPOy9KV\n5hgQsXSjmEinv0vGmeH+aldQp6BytIvp7BXudgHlHudJxKNgat/eLHq2Q+TUFA2E\nGMWCw6IbztLj5PQWP8ZHQbzgzghOIzAJSExIGV62bAVJyOHNO+6kJSr0DtNHi6Qu\njIDUkTbWm74xKnc4Qd0HdMD8yH/kZrDILgW7BMwKQKrb4YSmCBLAoQG+NojhsYjq\naag7rW2rAgMBAAECggEABwtALXJwKiBnXjC5acfl9VioJDijz/HXrOOGppiykTKp\nyMXZuSOd1caRXAT36H6isxerdLmNPn6HsrVTmXqJWrY3z1J6RnxpEh9WY4xbKLNW\nqM+yxdDDq4EZIflX9x+Ml6rruICkqlN7XGcDPicNX1OKF78hInfGGDfxbgWhrqNC\n+5WoGJtjt4g7Xv2dvWCMpyOevANUk6y2AUdzkhymZhWK00uoDbiCKy9pHMqJav6j\nY7YFkFIitjPIpFphirG4P5vGbrSqymB6Y0cI0XTPXwajYnHsni3Nh/2CkYYdsUr/\n8xMiYGXkAfVv+OTdpDzdsNlGj7jFs1JrGRJ47xaT+QKBgQDCkljzmJ7dT/iMUSeZ\n7Ejl297Ks+Iq4dzURbZmQJ8ObtzxcjKkQxf3yT+6ecKmCaSXtphsK0z1p4DsLksO\nTI7iai/OjzQdEnSRWcVqBGtlH99pwjfK5Ijxypk25oH7a86kYsuWmwjLV+9QcZqd\nkE3ScZkHH+0vsF5GJGdNcLZvbwKBgQC8VgQJoJPh6OZNsnFR7Y+ZCBOXbkD5m7+L\nUr+nxE7s1xmoOWDC0Pe2EUp1pWKvYfCiI2xheXVoUSlDzYnmd+xlvaXRreA6nAZD\ngqpYlHvNH2/avMuIrWNe1MmOIfgnAi8Cd7bwEy7aXjgdqcsvtY7qXOzgvZ11IHy+\nP+QwmP6HhQKBgQC+gdxmZoDl4G9TtAI6S4f0x5sUjZxcsFkv3jIBXDRgRVw/a7j5\n7FeDXaDwTFexiq+FfFsxThREUoWAurLyhTNBrQayELTN4kwQJP2OGFWu5c4yFt/Z\n4HnVhLEPeBK8wYnKmpEMHTA3KRpAgXsJ20jXTDKxLyllECK+OtaKlFmMMQKBgB1y\neYkj0VuGNdQ6LVu5ADXWPHH17DTa9FUNaCgMGqcPbtSNvCJZ2BFgnLrOVCLF9oDz\ndvO6sO/RmNkgHwqo/45c27twK1oeoSAXIxlchgrpemzCDjTdn2bpcGZHy2wV/FGv\ndCwPY8kC6FVDAiEAi0r7opH1M9RncvmwNbafhVSdAoGBAIF7ffGncrVXYPTp8Zdk\n3hy49XZBpopZSCp15wRxtc6A/L+PnM5/uuxZdna+qma7kGpJstJ55YlSypfVkFFG\nTMjb8y/A2z8ltDQIyEMab9GnusBmNJ5PkzdB0cV7Ri8HXZNePV0b/SA+gYQFPmgj\nhMdDn8MagYZ2AaJmRwbp55Dc\n-----END PRIVATE KEY-----\n",
  "client_email": "firebase-adminsdk-w4av3@feedbackhall.iam.gserviceaccount.com",
  "client_id": "109917444035178129114",
  "auth_uri": "https://accounts.google.com/o/oauth2/auth",
  "token_uri": "https://oauth2.googleapis.com/token",
  "auth_provider_x509_cert_url": "https://www.googleapis.com/oauth2/v1/certs",
  "client_x509_cert_url": "https://www.googleapis.com/robot/v1/metadata/x509/firebase-adminsdk-w4av3%40feedbackhall.iam.gserviceaccount.com"
}
